…
## import data

``` r
subway_df = 
  read_csv("./data/NYC_Transit_Subway_Entrance_And_Exit_Data.csv", col_types = cols(Route8 = "c", Route9 = "c", Route10 = "c", Route11 = "c")) |> 
  janitor::clean_names() |> 
  select(
    line, station_name, station_latitude, station_longitude, 
    starts_with("route"), entry, exit_only, vending, entrance_type, 
    ada) |> 
  mutate(entry = ifelse(entry == "YES", TRUE, FALSE))
print(subway_df)
```

    ## # A tibble: 1,868 × 20
    ##    line     station_name station_latitude station_longitude route1 route2 route3
    ##    <chr>    <chr>                   <dbl>             <dbl> <chr>  <chr>  <chr> 
    ##  1 4 Avenue 25th St                  40.7             -74.0 R      <NA>   <NA>  
    ##  2 4 Avenue 25th St                  40.7             -74.0 R      <NA>   <NA>  
    ##  3 4 Avenue 36th St                  40.7             -74.0 N      R      <NA>  
    ##  4 4 Avenue 36th St                  40.7             -74.0 N      R      <NA>  
    ##  5 4 Avenue 36th St                  40.7             -74.0 N      R      <NA>  
    ##  6 4 Avenue 45th St                  40.6             -74.0 R      <NA>   <NA>  
    ##  7 4 Avenue 45th St                  40.6             -74.0 R      <NA>   <NA>  
    ##  8 4 Avenue 45th St                  40.6             -74.0 R      <NA>   <NA>  
    ##  9 4 Avenue 45th St                  40.6             -74.0 R      <NA>   <NA>  
    ## 10 4 Avenue 53rd St                  40.6             -74.0 R      <NA>   <NA>  
    ## # ℹ 1,858 more rows
    ## # ℹ 13 more variables: route4 <chr>, route5 <chr>, route6 <chr>, route7 <chr>,
    ## #   route8 <chr>, route9 <chr>, route10 <chr>, route11 <chr>, entry <lgl>,
    ## #   exit_only <chr>, vending <chr>, entrance_type <chr>, ada <lgl>
…
